\relax 
\providecommand\HyperFirstAtBeginDocument{\AtBeginDocument}
\HyperFirstAtBeginDocument{\ifx\hyper@anchor\@undefined
\global\let\oldcontentsline\contentsline
\gdef\contentsline#1#2#3#4{\oldcontentsline{#1}{#2}{#3}}
\global\let\oldnewlabel\newlabel
\gdef\newlabel#1#2{\newlabelxx{#1}#2}
\gdef\newlabelxx#1#2#3#4#5#6{\oldnewlabel{#1}{{#2}{#3}}}
\AtEndDocument{\ifx\hyper@anchor\@undefined
\let\contentsline\oldcontentsline
\let\newlabel\oldnewlabel
\fi}
\fi}
\global\let\hyper@last\relax 
\gdef\HyperFirstAtBeginDocument#1{#1}
\providecommand\HyField@AuxAddToFields[1]{}
\providecommand\HyField@AuxAddToCoFields[2]{}
\@writefile{toc}{\contentsline {section}{Experiencia}{1}{section*.1}\protected@file@percent }
\@writefile{toc}{\contentsline {subsection}{Laboral}{1}{section*.2}\protected@file@percent }
\@writefile{toc}{\contentsline {subsection}{Cursos y talleres dictados, documentos publicados}{2}{section*.3}\protected@file@percent }
\@writefile{toc}{\contentsline {section}{Habilidades}{7}{section*.4}\protected@file@percent }
\@writefile{toc}{\contentsline {subsection}{Personales}{7}{section*.5}\protected@file@percent }
\@writefile{toc}{\contentsline {subsection}{Tecnológicas}{7}{section*.6}\protected@file@percent }
\@writefile{toc}{\contentsline {section}{Idiomas}{8}{section*.7}\protected@file@percent }
\@writefile{toc}{\contentsline {section}{Educación}{8}{section*.8}\protected@file@percent }
\newlabel{lastpage}{{}{8}{}{section*.8}{}}
\gdef \@abspage@last{8}
